<?xml version="1.0" encoding="utf-8"?>
<!-- Generator: Adobe Illustrator 18.0.0, SVG Export Plug-In . SVG Version: 6.00 Build 0)  -->
<!DOCTYPE svg PUBLIC "-//W3C//DTD SVG 1.1//EN" "http://www.w3.org/Graphics/SVG/1.1/DTD/svg11.dtd">
<svg version="1.1" id="Layer_1" xmlns="http://www.w3.org/2000/svg" xmlns:xlink="http://www.w3.org/1999/xlink" x="0px" y="0px"
	 viewBox="419.5 193 795 490" enable-background="new 419.5 193 795 490" xml:space="preserve">
<g id="Layer_x0020_1">
	<path fill="#008DC4" d="M653.2,380.1c21.5-21.3-4.6-76.8-5-98.1c1.2-18.6,20.7-19.1,27.3-8.9c5,7.5,7.5,28.4,9.5,39.5
		c5,24,16.2,60.8,15.3,87.9c0,13.3-4.6,14.2-11.6,13.3c-15.3-1.3-27.3,0.9-41.8,5.8C524,461,712.9,663.8,728.6,457
		c2.9-36,22-89.2,63.4-82.1c14.5,2.7,4.6,22.2-2.5,31.5c-26.1,41.3-16.6,46.2-31.1,97.7c-15.7,65.7-51,71.5-88.2,68.8
		c-22-1.3-43.5-11.1-55.5-24.4c-36.5-40.8-30.7-63-82.9-82.1c-11.2-4-22.8-8.4-28.6-15.5c-8.3-10.7-5.8-33.7,18.6-24.4
		c11.2,4,24,11.5,36,16.4c10.4,3.6,20.3,5.3,28.6,1.3c2.5-9.3-2.1-13.8-14.1-24.9l-43.1-39.1c-6.2-6.7-14.1-15.1-8.3-28
		c17-37.7,60.9,50.6,93.2,49.7c12-28-62.6-96.3-36.5-112.8C607.7,268.3,622.6,364.2,653.2,380.1z"/>
	<path fill="#008DC4" d="M667.5,439.3c20.5-0.5,37.6,17,38,39c0.4,22-15.9,40.3-36.4,40.7s-37.6-17-38-39
		C630.7,458,647,439.8,667.5,439.3z"/>
	<path fill="#008DC4" d="M833.8,458.7l-20.7,70.1c-0.4,1.3-0.8,3.1-1.2,4.4c-0.4,1.3-0.4,2.7-0.8,4.4c-0.4,3.1,0,5.3,1.2,6.7
		c1.2,1.8,3.3,2.2,6.6,2.2c1.2,0,2.5,0,3.7,0c1.7-0.4,2.9-0.4,4.6-0.9l-8.7,15.5c-8.3,14.7-28.6,16.4-41,4.4
		c-4.6-5.3-6.6-12.4-5-22.2c0-1.8,0.4-4,1.2-6.2c0.4-2.2,1.2-4.9,1.7-7.5l13.7-46.2C799.5,449,805.3,462.7,833.8,458.7z
		 M832.6,405.5c5.8,0,9.9,1.8,12.8,4.9c2.9,3.1,3.7,7.5,2.9,13.3c-0.8,6.2-3.7,11.5-8.3,15.5c-4.6,4.4-10.4,6.2-16.6,6.2
		c-5.4,0-9.5-1.8-12.4-4.9c-2.9-3.1-3.7-7.5-2.9-13.3s3.7-11.1,8.7-15.1C821.4,407.7,826.8,405.5,832.6,405.5z M912.6,462.3h28.2
		c4.6,0,7.9,1.8,9.1,4.9c1.7,3.6,1.7,9.8,0,19.1c-1.2,9.8-3.7,19.1-7.9,28.9c-3.7,9.3-9.1,18.2-15.3,26.6
		c-7.5,10.2-16.2,18.2-25.3,23.5c-9.1,5.3-19.1,8-29.4,8c-10.4,0-17.8-3.1-23.2-9.3c-5-5.8-7-13.8-5.4-23.5
		c0.8-7.1,3.3-15.5,7.5-25.3s6.2-16,6.6-19.1c0.4-2.7-0.4-4.4-2.1-6.2c-2.1-1.3-5-1.8-9.1-1.8c-0.8,0-2.5,0-5,0.4
		c-0.4,0-0.8,0-1.2,0l9.9-17.3c2.1-3.6,4.6-5.8,7-7.5c2.9-1.3,6.2-1.8,10.8-1.8c9.9,0,17,2.2,22,7.5c5,5.3,6.6,12.4,5.4,21.8
		c-1.2,7.5-4.1,16.4-8.3,27.5c-4.6,10.7-7,16.9-7,19.5c-0.4,1.8-0.4,2.7,0,3.6c0.8,0.4,1.7,0.9,3.3,0.9c5.4,0,11.2-5.3,17.4-16.4
		c6.6-10.7,10.8-23.5,12.8-38.2c0.4-4.4,0.8-8.9,0.8-13.3C913.8,470.7,913.4,466.3,912.6,462.3z M1011.1,458.7l-20.7,70.1
		c-0.4,1.3-0.8,3.1-1.2,4.4c0,1.3-0.4,2.7-0.4,4.4c-0.8,3.1-0.4,5.3,0.8,6.7c1.2,1.8,3.7,2.2,6.6,2.2c1.2,0,2.5,0,3.7,0
		c1.7-0.4,3.3-0.4,5-0.9l-8.7,15.5c-8.3,14.7-29,16.9-41,4.4c-5-5.3-6.6-12.4-5.4-22.2c0.4-1.8,0.8-4,1.2-6.2s1.2-4.9,2.1-7.5
		l13.3-46.2C975.9,450.7,978.8,463.6,1011.1,458.7z M1010.3,405.5c5.4,0,9.5,1.8,12.4,4.9c2.9,3.1,3.7,7.5,2.9,13.3
		c-0.8,6.2-3.7,11.5-8.3,15.5c-4.6,4-9.9,6.2-16.2,6.2c-5.8,0-9.9-1.8-12.8-4.9c-2.9-3.1-3.7-7.5-2.9-13.3s3.7-11.1,8.7-15.1
		C998.7,407.7,1004.1,405.5,1010.3,405.5z M1077.8,492c-5,0-10.4,4.4-16.2,12.4c-5.8,8.4-9.5,17.3-10.8,26.2
		c-0.4,3.6-0.4,6.2,0.4,7.5c0.8,1.8,2.5,2.7,5,2.7s5-0.9,7.5-3.6c2.9-2.2,5.4-5.3,7.5-9.3c2.9-5.3,5.4-10.2,7.5-15.5
		c1.7-4.9,2.9-9.3,3.7-12.9c0-2.2,0-4.4-0.8-5.3C1080.7,492.9,1079.5,492,1077.8,492z M1077.4,557.3c-4.6,5.3-9.5,8.9-15.3,11.5
		c-5.4,2.7-11.6,3.6-18.2,3.6c-9.9,0-18.2-4-23.6-12c-5.8-8.4-7.9-18.6-5.8-31.5c0.8-7.5,3.3-15.5,6.6-23.1
		c3.3-7.5,7.5-14.2,12.4-20.4c6.6-7.5,14.1-13.8,22.4-18.6c8.3-4.4,16.2-6.7,24-6.7c5,0,9.1,0.9,12.4,2.2c3.3,1.3,6.2,4,8.3,7.1
		c1.7-2.7,3.3-4.4,5-5.3c1.7-1.3,4.1-1.8,7-1.8h22.4c-6.6,11.1-12,23.1-16.6,35.5c-5,12.9-7.9,24.4-9.5,35.5
		c-0.8,5.8-0.4,9.8,1.7,12.4c1.7,2.7,5,3.6,9.9,3.6h2.5c-2.5,8-6.2,13.8-10.8,17.8c-4.1,4-9.5,6.2-16.2,6.2c-4.6,0-8.3-1.3-11.6-4
		C1081.6,566.6,1079.1,562.6,1077.4,557.3z"/>
</g>
</svg>
