<?xml version="1.0" encoding="UTF-8"?>
<!DOCTYPE svg PUBLIC "-//W3C//DTD SVG 1.1//EN" "http://www.w3.org/Graphics/SVG/1.1/DTD/svg11.dtd">
<!-- Creator: CorelDRAW X7 -->
<svg xmlns="http://www.w3.org/2000/svg" xml:space="preserve" width="1605px" height="723px" version="1.1" style="shape-rendering:geometricPrecision; text-rendering:geometricPrecision; image-rendering:optimizeQuality; fill-rule:evenodd; clip-rule:evenodd"
viewBox="0 0 1535 692"
 xmlns:xlink="http://www.w3.org/1999/xlink">
 <defs>
  <style type="text/css">
   <![CDATA[
    .fil0 {fill:#008DC4}
   ]]>
  </style>
 </defs>
 <g id="Layer_x0020_1">
  <metadata id="CorelCorpID_0Corel-Layer"/>
  <path class="fil0" d="M372 256c52,-48 -11,-173 -12,-221 3,-42 50,-43 66,-20 12,17 18,64 23,89 12,54 39,137 37,198 0,30 -11,32 -28,30 -37,-3 -66,2 -101,13 -297,93 159,550 197,84 7,-81 53,-201 153,-185 35,6 11,50 -6,71 -63,93 -40,104 -75,220 -38,148 -123,161 -213,155 -53,-3 -105,-25 -134,-55 -88,-92 -74,-142 -200,-185 -27,-9 -55,-19 -69,-35 -20,-24 -14,-76 45,-55 27,9 58,26 87,37 25,8 49,12 69,3 6,-21 -5,-31 -34,-56l-104 -88c-15,-15 -34,-34 -20,-63 41,-85 147,114 225,112 29,-63 -151,-217 -88,-254 72,-47 108,169 182,205z"/>
  <circle class="fil0" transform="matrix(1.13682 -0.02439 0.02439 1.13682 408.417 479.127)" r="79"/>
  <path class="fil0" d="M808 433l-50 158c-1,3 -2,7 -3,10 -1,3 -1,6 -2,10 -1,7 0,12 3,15 3,4 8,5 16,5 3,0 6,0 9,0 4,-1 7,-1 11,-2l-21 35c-20,33 -69,37 -99,10 -11,-12 -16,-28 -12,-50 0,-4 1,-9 3,-14 1,-5 3,-11 4,-17l33 -104c25,-78 39,-47 108,-56zm-3 -120c14,0 24,4 31,11 7,7 9,17 7,30 -2,14 -9,26 -20,35 -11,10 -25,14 -40,14 -13,0 -23,-4 -30,-11 -7,-7 -9,-17 -7,-30 2,-13 9,-25 21,-34 11,-10 24,-15 38,-15zm193 128l68 0c11,0 19,4 22,11 4,8 4,22 0,43 -3,22 -9,43 -19,65 -9,21 -22,41 -37,60 -18,23 -39,41 -61,53 -22,12 -46,18 -71,18 -25,0 -43,-7 -56,-21 -12,-13 -17,-31 -13,-53 2,-16 8,-35 18,-57 10,-22 15,-36 16,-43 1,-6 -1,-10 -5,-14 -5,-3 -12,-4 -22,-4 -2,0 -6,0 -12,1 -1,0 -2,0 -3,0l24 -39c5,-8 11,-13 17,-17 7,-3 15,-4 26,-4 24,0 41,5 53,17 12,12 16,28 13,49 -3,17 -10,37 -20,62 -11,24 -17,38 -17,44 -1,4 -1,6 0,8 2,1 4,2 8,2 13,0 27,-12 42,-37 16,-24 26,-53 31,-86 1,-10 2,-20 2,-30 -1,-9 -2,-19 -4,-28zm238 -8l-50 158c-1,3 -2,7 -3,10 0,3 -1,6 -1,10 -2,7 -1,12 2,15 3,4 9,5 16,5 3,0 6,0 9,0 4,-1 8,-1 12,-2l-21 35c-20,33 -70,38 -99,10 -12,-12 -16,-28 -13,-50 1,-4 2,-9 3,-14 1,-5 3,-11 5,-17l32 -104c23,-74 30,-45 108,-56zm-2 -120c13,0 23,4 30,11 7,7 9,17 7,30 -2,14 -9,26 -20,35 -11,9 -24,14 -39,14 -14,0 -24,-4 -31,-11 -7,-7 -9,-17 -7,-30 2,-13 9,-25 21,-34 11,-10 24,-15 39,-15zm163 195c-12,0 -25,10 -39,28 -14,19 -23,39 -26,59 -1,8 -1,14 1,17 2,4 6,6 12,6 6,0 12,-2 18,-8 7,-5 13,-12 18,-21 7,-12 13,-23 18,-35 4,-11 7,-21 9,-29 0,-5 0,-10 -2,-12 -2,-3 -5,-5 -9,-5zm-1 147c-11,12 -23,20 -37,26 -13,6 -28,8 -44,8 -24,0 -44,-9 -57,-27 -14,-19 -19,-42 -14,-71 2,-17 8,-35 16,-52 8,-17 18,-32 30,-46 16,-17 34,-31 54,-42 20,-10 39,-15 58,-15 12,0 22,2 30,5 8,3 15,9 20,16 4,-6 8,-10 12,-12 4,-3 10,-4 17,-4l54 0c-16,25 -29,52 -40,80 -12,29 -19,55 -23,80 -2,13 -1,22 4,28 4,6 12,8 24,8l6 0c-6,18 -15,31 -26,40 -10,9 -23,14 -39,14 -11,0 -20,-3 -28,-9 -7,-6 -13,-15 -17,-27z"/>
 </g>
</svg>
