<?xml version="1.0" encoding="UTF-8"?>
<!DOCTYPE svg PUBLIC "-//W3C//DTD SVG 1.1//EN" "http://www.w3.org/Graphics/SVG/1.1/DTD/svg11.dtd">
<!-- Creator: CorelDRAW X7 -->
<svg xmlns="http://www.w3.org/2000/svg" xml:space="preserve" width="840px" height="190px" version="1.1" style="shape-rendering:geometricPrecision; text-rendering:geometricPrecision; image-rendering:optimizeQuality; fill-rule:evenodd; clip-rule:evenodd"
viewBox="0 0 798 180"
 xmlns:xlink="http://www.w3.org/1999/xlink">
 <defs>
  <style type="text/css">
   <![CDATA[
    .fil2 {fill:#0DC0C0}
    .fil1 {fill:#6BE0E0}
    .fil0 {fill:white}
   ]]>
  </style>
 </defs>
 <g id="Layer_x0020_1">
  <metadata id="CorelCorpID_0Corel-Layer"/>
  <path class="fil0" d="M188 148l13 0 0 -43 15 0c20,0 33,-10 33,-30l0 -4c0,-19 -13,-29 -33,-29l-28 0 0 106zm27 -94c13,0 21,6 21,18l0 3c0,12 -8,18 -21,18l-14 0 0 -39 14 0zm68 20c-15,0 -24,10 -25,26l12 0c0,-10 4,-15 12,-15 8,0 12,5 12,15l0 6 -13 2c-16,3 -24,10 -24,22 0,12 8,20 20,20 7,0 13,-3 18,-9l0 7 11 0 0 -47c0,-17 -8,-27 -23,-27zm11 52c0,7 -6,13 -14,13 -7,0 -11,-3 -11,-10 0,-7 5,-10 14,-12l11 -1 0 10zm53 -52c-16,0 -26,11 -26,28l0 20c0,17 10,28 26,28 16,0 25,-11 25,-28l-11 0c-1,10 -5,17 -14,17 -9,0 -14,-6 -14,-17l0 -20c0,-10 5,-17 14,-17 9,0 14,6 14,18l11 0c0,-18 -9,-29 -25,-29zm39 -24c0,5 4,8 8,8 4,0 7,-4 7,-8 0,-4 -3,-7 -7,-7 -4,0 -8,3 -8,7zm14 26l-12 0 0 72 12 0 0 -72zm44 -37c-13,0 -22,7 -22,23l0 14 -11 0 0 10 11 0 0 62 13 0 0 -62 14 0 0 -10 -14 0 0 -15c0,-8 3,-12 10,-12 2,0 4,1 6,1l0 -11c-3,0 -6,0 -7,0zm15 11c0,5 3,8 7,8 4,0 8,-4 8,-8 0,-4 -4,-7 -8,-7 -4,0 -7,3 -7,7l0 0zm13 26l-12 0 0 72 12 0 0 -72zm42 -2c-16,0 -26,11 -26,28l0 20c0,17 10,28 26,28 16,0 25,-11 26,-28l-12 0c0,10 -5,17 -14,17 -8,0 -14,-6 -14,-17l0 -20c0,-10 6,-17 14,-17 9,0 14,6 14,18l12 0c-1,-18 -10,-29 -26,-29z"/>
  <path class="fil1" d="M593 41c-22,0 -35,15 -35,39l0 30c0,25 13,40 35,40 11,0 19,-4 25,-11 6,-7 10,-16 10,-28l-14 0c0,17 -7,27 -21,27 -14,0 -21,-10 -21,-28l0 -30c0,-17 7,-27 21,-27 14,0 21,9 21,26l14 0c0,-11 -4,-21 -10,-28 -6,-7 -14,-10 -25,-10zm63 -1l-12 0 0 108 12 0 0 -108zm69 36l-12 0 0 46c0,9 -6,16 -13,16 -8,0 -13,-6 -13,-16l0 -46 -12 0 0 49c0,15 8,25 21,25 9,0 15,-4 17,-9l0 7 12 0 0 -72zm19 -36l0 108 12 0 0 -8c3,6 9,10 18,10 14,0 24,-11 24,-28l0 -20c0,-17 -10,-28 -24,-28 -9,0 -15,3 -17,9l0 -43 -13 0zm27 45c9,0 15,7 15,17l0 20c0,10 -6,17 -15,17 -9,0 -14,-7 -14,-17l0 -20c0,-10 5,-17 14,-17z"/>
  <path class="fil2" d="M72 180l0 -72 0 -30 0 0c-3,0 -5,1 -8,1 -12,0 -22,-10 -22,-22 0,-11 10,-21 22,-21 3,0 5,0 8,1l0 -36c-19,-3 -40,4 -55,16 -51,46 27,123 55,163z"/>
  <path class="fil1" d="M72 114c24,-7 55,-28 55,-58 -1,-26 -23,-52 -55,-55l0 36c8,3 14,11 14,20 0,10 -6,17 -14,21l0 36z"/>
 </g>
</svg>
